tool/Systolic-Array-Matrix-Multiplication/16by16-with-controller/3by3-with-controller/transcript
# 0 compiles, 5 failed with no errors.
# Compile of mac_unit.sv was successful.
# Compile of matrix_multiply.sv was successful with warnings.
# Compile of matrix_mutiply_contorller.sv was successful with warnings.
# Compile of matrix_mutiply_controller_tb.sv was successful.
# Compile of tb_matrix_multiply.sv was successful.
# 5 compiles, 0 failed with no errors.
vsim work.matrix_multiply_controller_tb
# vsim work.matrix_multiply_controller_tb 
# Start time: 17:45:17 on May 12,2024
# Loading sv_std.std
# Loading work.matrix_multiply_controller_tb
# Loading work.matrix_multiply_controller
# Loading work.matrix_multiply
# Loading work.mac_unit
add wave -position insertpoint  \
sim:/matrix_multiply_controller_tb/start \
sim:/matrix_multiply_controller_tb/reset \
sim:/matrix_multiply_controller_tb/out_matrix \
sim:/matrix_multiply_controller_tb/MATRIX_SIZE \
sim:/matrix_multiply_controller_tb/INPUT_COUNT \
sim:/matrix_multiply_controller_tb/in_store_b \
sim:/matrix_multiply_controller_tb/in_store_a \
sim:/matrix_multiply_controller_tb/done \
sim:/matrix_multiply_controller_tb/DATA_SIZE \
sim:/matrix_multiply_controller_tb/clk
run
run
# Matrix A:
#   9   8   7  
#   6   5   4  
#   3   2   1  
# Matrix B:
#   8   7   3  
#   9   5   1  
#   6   4   2  
# Output Matrix:
#  28  38  41  
#  64  83  95  
# 100 128 149  
# ** Note: $finish    : C:/Users/Xaio/Documents/GitHub/ecg-classification-asic/tool/Systolic-Array-Matrix-Multiplication/3by3-with-controller/matrix_mutiply_controller_tb.sv(78)
#    Time: 155 ns  Iteration: 0  Instance: /matrix_multiply_controller_tb
# 1
# Break in Module matrix_multiply_controller_tb at C:/Users/Xaio/Documents/GitHub/ecg-classification-asic/tool/Systolic-Array-Matrix-Multiplication/3by3-with-controller/matrix_mutiply_controller_tb.sv line 78
run
add wave -position insertpoint  \
sim:/matrix_multiply_controller_tb/dut/in_a_reg
add wave -position insertpoint  \
sim:/matrix_multiply_controller_tb/dut/in_b_reg
# Compile of mac_unit.sv was successful.
# Compile of matrix_multiply.sv was successful with warnings.
# Compile of matrix_mutiply_contorller.sv was successful with warnings.
# Compile of matrix_mutiply_controller_tb.sv was successful.
# Compile of tb_matrix_multiply.sv was successful.
# 5 compiles, 0 failed with no errors.
restart
# ** Note: (vsim-12125) Error and warning message counts have been reset to '0' because of 'restart'.
# Loading work.matrix_multiply_controller_tb
# Loading work.matrix_multiply_controller
# Loading work.matrix_multiply
# Loading work.mac_unit
run
# GetModuleFileName: The specified module could not be found.
# 
# 
run
# Matrix A:
#   9   8   7  
#   6   5   4  
#   3   2   1  
# Matrix B:
#   8   7   3  
#   9   5   1  
#   6   4   2  
# Output Matrix:
#  28  38  41  
#  64  83  95  
# 100 128 149  
# ** Note: $finish    : C:/Users/Xaio/Documents/GitHub/ecg-classification-asic/tool/Systolic-Array-Matrix-Multiplication/3by3-with-controller/matrix_mutiply_controller_tb.sv(78)
#    Time: 155 ns  Iteration: 0  Instance: /matrix_multiply_controller_tb
# 1
# Break in Module matrix_multiply_controller_tb at C:/Users/Xaio/Documents/GitHub/ecg-classification-asic/tool/Systolic-Array-Matrix-Multiplication/3by3-with-controller/matrix_mutiply_controller_tb.sv line 78
# Compile of mac_unit.sv was successful.
# Compile of matrix_multiply.sv was successful with warnings.
# Compile of matrix_mutiply_contorller.sv was successful with warnings.
# Compile of matrix_mutiply_controller_tb.sv was successful.
# Compile of tb_matrix_multiply.sv was successful.
# 5 compiles, 0 failed with no errors.
restart
# ** Note: (vsim-12125) Error and warning message counts have been reset to '0' because of 'restart'.
# Loading work.matrix_multiply_controller_tb
# Loading work.matrix_multiply_controller
# Loading work.matrix_multiply
# Loading work.mac_unit
run
# GetModuleFileName: The specified module could not be found.
# 
# 
run
# Matrix A:
#   9   8   7  
#   6   5   4  
#   3   2   1  
# Matrix B:
#   8   7   3  
#   9   5   1  
#   6   4   2  
# Output Matrix:
#  28  38  41  
#  64  83  95  
# 100 128 149  
# ** Note: $finish    : C:/Users/Xaio/Documents/GitHub/ecg-classification-asic/tool/Systolic-Array-Matrix-Multiplication/3by3-with-controller/matrix_mutiply_controller_tb.sv(78)
#    Time: 155 ns  Iteration: 0  Instance: /matrix_multiply_controller_tb
# 1
# Break in Module matrix_multiply_controller_tb at C:/Users/Xaio/Documents/GitHub/ecg-classification-asic/tool/Systolic-Array-Matrix-Multiplication/3by3-with-controller/matrix_mutiply_controller_tb.sv line 78
add wave -position insertpoint  \
sim:/matrix_multiply_controller_tb/dut/in_b \
sim:/matrix_multiply_controller_tb/dut/in_a
# Compile of mac_unit.sv was successful.
# Compile of matrix_multiply.sv was successful with warnings.
# Compile of matrix_mutiply_contorller.sv was successful with warnings.
# Compile of matrix_mutiply_controller_tb.sv was successful.
# Compile of tb_matrix_multiply.sv was successful.
# 5 compiles, 0 failed with no errors.
restart
# ** Note: (vsim-12125) Error and warning message counts have been reset to '0' because of 'restart'.
# Loading work.matrix_multiply_controller_tb
# Loading work.matrix_multiply_controller
# Loading work.matrix_multiply
# Loading work.mac_unit
run
# GetModuleFileName: The specified module could not be found.
# 
# 
run
# Matrix A:
#   9   8   7  
#   6   5   4  
#   3   2   1  
# Matrix B:
#   8   7   3  
#   9   5   1  
#   6   4   2  
# Output Matrix:
#  28  38  41  
#  64  83  95  
# 100 128 149  
# ** Note: $finish    : C:/Users/Xaio/Documents/GitHub/ecg-classification-asic/tool/Systolic-Array-Matrix-Multiplication/3by3-with-controller/matrix_mutiply_controller_tb.sv(78)
#    Time: 155 ns  Iteration: 0  Instance: /matrix_multiply_controller_tb
# 1
# Break in Module matrix_multiply_controller_tb at C:/Users/Xaio/Documents/GitHub/ecg-classification-asic/tool/Systolic-Array-Matrix-Multiplication/3by3-with-controller/matrix_mutiply_controller_tb.sv line 78
# End time: 17:57:58 on May 12,2024, Elapsed time: 0:12:41
# Errors: 0, Warnings: 1
# Closing project C:/Users/Xaio/Documents/GitHub/ecg-classification-asic/tool/Systolic-Array-Matrix-Multiplication/3by3-with-controller/sysdone.mpf
# reading D:/intelFPGA/20.1/modelsim_ase/win32aloem/../modelsim.ini
# Loading project 16by16
# Compile of mac_unit.sv was successful.
# Compile of matrix_multiply.sv was successful with warnings.
# Compile of matrix_mutiply_contorller.sv was successful with warnings.
# Compile of matrix_mutiply_controller_tb.sv was successful.
# Compile of tb_matrix_multiply.sv was successful.
# 5 compiles, 0 failed with no errors.
vsim work.matrix_multiply_controller_tb
# vsim work.matrix_multiply_controller_tb 
# Start time: 17:58:05 on May 12,2024
# Loading sv_std.std
# Loading work.matrix_multiply_controller_tb
# Loading work.matrix_multiply_controller
# Loading work.matrix_multiply
# Loading work.mac_unit
run
run
run
run -all
# Matrix A:
#   1   3   2   1   3   2   1   3   2   1   3   2   1   3   2   1  
#   3   2   1   3   2   1   3   2   1   3   2   1   3   2   1   3  
#   2   1   3   2   1   3   2   1   3   2   1   3   2   1   3   2  
#   1   3   2   1   3   2   1   3   2   1   3   2   1   3   2   1  
#   3   2   1   3   2   1   3   2   1   3   2   1   3   2   1   3  
#   2   1   3   2   1   3   2   1   3   2   1   3   2   1   3   2  
#   1   3   2   1   3   2   1   3   2   1   3   2   1   3   2   1  
#   3   2   1   3   2   1   3   2   1   3   2   1   3   2   1   3  
#   2   1   3   2   1   3   2   1   3   2   1   3   2   1   3   2  
#   1   3   2   1   3   2   1   3   2   1   3   2   1   3   2   1  
#   3   2   1   3   2   1   3   2   1   3   2   1   3   2   1   3  
#   2   1   3   2   1   3   2   1   3   2   1   3   2   1   3   2  
#   1   3   2   1   3   2   1   3   2   1   3   2   1   3   2   1  
#   3   2   1   3   2   1   3   2   1   3   2   1   3   2   1   3  
#   2   1   3   2   1   3   2   1   3   2   1   3   2   1   3   2  
#   1   3   2   1   3   2   1   3   2   1   3   2   1   3   2   1  
# Matrix B:
#   2   1   3   2   1   3   2   1   3   2   1   3   2   1   3   2  
#   2   3   1   2   3   1   2   3   1   2   3   1   2   3   1   2  
#   2   1   3   2   1   3   2   1   3   2   1   3   2   1   3   2  
#   1   3   2   1   3   2   1   3   2   1   3   2   1   3   2   1  
#   3   2   1   3   2   1   3   2   1   3   2   1   3   2   1   3  
#   3   2   1   3   2   1   3   2   1   3   2   1   3   2   1   3  
#   1   3   2   1   3   2   1   3   2   1   3   2   1   3   2   1  
#   1   2   3   1   2   3   1   2   3   1   2   3   1   2   3   1  
#   2   1   3   2   1   3   2   1   3   2   1   3   2   1   3   2  
#   3   2   1   3   2   1   3   2   1   3   2   1   3   2   1   3  
#   1   3   2   1   3   2   1   3   2   1   3   2   1   3   2   1  
#   2   1   3   2   1   3   2   1   3   2   1   3   2   1   3   2  
#   3   2   1   3   2   1   3   2   1   3   2   1   3   2   1   3  
#   3   2   1   3   2   1   3   2   1   3   2   1   3   2   1   3  
#   1   3   2   1   3   2   1   3   2   1   3   2   1   3   2   1  
#   2   3   1   2   3   1   2   3   1   2   3   1   2   3   1   2  
# Output Matrix:
#  67  71  58  58  57  71  58  57  66  71  58  58  71  57  67  57  
#  54  57  61  61  74  57  61  74  67  57  61  61  57  74  54  74  
#  71  58  79  79  61  58  79  61  53  58  79  79  58  61  71  61  
#  67  71  58  58  57  71  58  57  66  71  58  58  71  57  67  57  
#  54  57  61  61  74  57  61  74  67  57  61  61  57  74  54  74  
#  71  58  79  79  61  58  79  61  53  58  79  79  58  61  71  61  
#  67  71  58  58  57  71  58  57  66  71  58  58  71  57  67  57  
#  54  57  61  61  74  57  61  74  67  57  61  61  57  74  54  74  
#  71  58  79  79  61  58  79  61  53  58  79  79  58  61  71  61  
#  67  71  58  58  57  71  58  57  66  71  58  58  71  57  67  57  
#  54  57  61  61  74  57  61  74  67  57  61  61  57  74  54  74  
#  71  58  79  79  61  58  79  61  53  58  79  79  58  61  71  61  
#  67  71  58  58  57  71  58  57  66  71  58  58  71  57  67  57  
#  54  57  61  61  74  57  61  74  67  57  61  61  57  74  54  74  
#  71  58  79  79  61  58  79  61  53  58  79  79  58  61  71  61  
#  67  71  58  58  57  71  58  57  66  71  58  58  71  57  67  57  
# ** Note: $finish    : C:/Users/Xaio/Documents/GitHub/ecg-classification-asic/tool/Systolic-Array-Matrix-Multiplication/16by16-with-controller/matrix_mutiply_controller_tb.sv(100)
#    Time: 535 ns  Iteration: 0  Instance: /matrix_multiply_controller_tb
# 1
# Break in Module matrix_multiply_controller_tb at C:/Users/Xaio/Documents/GitHub/ecg-classification-asic/tool/Systolic-Array-Matrix-Multiplication/16by16-with-controller/matrix_mutiply_controller_tb.sv line 100
# Compile of mac_unit.sv was successful.
# Compile of matrix_multiply.sv was successful with warnings.
# Compile of matrix_mutiply_contorller.sv was successful with warnings.
# Compile of matrix_mutiply_controller_tb.sv was successful.
# Compile of tb_matrix_multiply.sv was successful.
# 5 compiles, 0 failed with no errors.
restart
# ** Note: (vsim-12125) Error and warning message counts have been reset to '0' because of 'restart'.
# Loading work.matrix_multiply_controller_tb
# Loading work.matrix_multiply_controller
# Loading work.matrix_multiply
# Loading work.mac_unit
run -all
# GetModuleFileName: The specified module could not be found.
# 
# 
# Matrix A:
#   1   3   2   1   3   2   1   3   2   1   3   2   1   3   2   1  
#   3   2   1   3   2   1   3   2   1   3   2   1   3   2   1   3  
#   2   1   3   2   1   3   2   1   3   2   1   3   2   1   3   2  
#   1   3   2   1   3   2   1   3   2   1   3   2   1   3   2   1  
#   3   2   1   3   2   1   3   2   1   3   2   1   3   2   1   3  
#   2   1   3   2   1   3   2   1   3   2   1   3   2   1   3   2  
#   1   3   2   1   3   2   1   3   2   1   3   2   1   3   2   1  
#   3   2   1   3   2   1   3   2   1   3   2   1   3   2   1   3  
#   2   1   3   2   1   3   2   1   3   2   1   3   2   1   3   2  
#   1   3   2   1   3   2   1   3   2   1   3   2   1   3   2   1  
#   3   2   1   3   2   1   3   2   1   3   2   1   3   2   1   3  
#   2   1   3   2   1   3   2   1   3   2   1   3   2   1   3   2  
#   1   3   2   1   3   2   1   3   2   1   3   2   1   3   2   1  
#   3   2   1   3   2   1   3   2   1   3   2   1   3   2   1   3  
#   2   1   3   2   1   3   2   1   3   2   1   3   2   1   3   2  
#   1   3   2   1   3   2   1   3   2   1   3   2   1   3   2   1  
# Matrix B:
#   2   1   3   2   1   3   2   1   3   2   1   3   2   1   3   2  
#   2   3   1   2   3   1   2   3   1   2   3   1   2   3   1   2  
#   2   1   3   2   1   3   2   1   3   2   1   3   2   1   3   2  
#   1   3   2   1   3   2   1   3   2   1   3   2   1   3   2   1  
#   3   2   1   3   2   1   3   2   1   3   2   1   3   2   1   3  
#   3   2   1   3   2   1   3   2   1   3   2   1   3   2   1   3  
#   1   3   2   1   3   2   1   3   2   1   3   2   1   3   2   1  
#   1   2   3   1   2   3   1   2   3   1   2   3   1   2   3   1  
#   2   1   3   2   1   3   2   1   3   2   1   3   2   1   3   2  
#   3   2   1   3   2   1   3   2   1   3   2   1   3   2   1   3  
#   1   3   2   1   3   2   1   3   2   1   3   2   1   3   2   1  
#   2   1   3   2   1   3   2   1   3   2   1   3   2   1   3   2  
#   3   2   1   3   2   1   3   2   1   3   2   1   3   2   1   3  
#   3   2   1   3   2   1   3   2   1   3   2   1   3   2   1   3  
#   1   3   2   1   3   2   1   3   2   1   3   2   1   3   2   1  
#   2   3   1   2   3   1   2   3   1   2   3   1   2   3   1   2  
# Output Matrix:
#  67  71  58  58  57  71  58  57  66  71  58  58  71  57  67  57  
#  54  57  61  61  74  57  61  74  67  57  61  61  57  74  54  74  
#  71  58  79  79  61  58  79  61  53  58  79  79  58  61  71  61  
#  67  71  58  58  57  71  58  57  66  71  58  58  71  57  67  57  
#  54  57  61  61  74  57  61  74  67  57  61  61  57  74  54  74  
#  71  58  79  79  61  58  79  61  53  58  79  79  58  61  71  61  
#  67  71  58  58  57  71  58  57  66  71  58  58  71  57  67  57  
#  54  57  61  61  74  57  61  74  67  57  61  61  57  74  54  74  
#  71  58  79  79  61  58  79  61  53  58  79  79  58  61  71  61  
#  67  71  58  58  57  71  58  57  66  71  58  58  71  57  67  57  
#  54  57  61  61  74  57  61  74  67  57  61  61  57  74  54  74  
#  71  58  79  79  61  58  79  61  53  58  79  79  58  61  71  61  
#  67  71  58  58  57  71  58  57  66  71  58  58  71  57  67  57  
#  54  57  61  61  74  57  61  74  67  57  61  61  57  74  54  74  
#  71  58  79  79  61  58  79  61  53  58  79  79  58  61  71  61  
#  67  71  58  58  57  71  58  57  66  71  58  58  71  57  67  57  
# ** Note: $finish    : C:/Users/Xaio/Documents/GitHub/ecg-classification-asic/tool/Systolic-Array-Matrix-Multiplication/16by16-with-controller/matrix_mutiply_controller_tb.sv(100)
#    Time: 545 ns  Iteration: 0  Instance: /matrix_multiply_controller_tb
# 1
# Break in Module matrix_multiply_controller_tb at C:/Users/Xaio/Documents/GitHub/ecg-classification-asic/tool/Systolic-Array-Matrix-Multiplication/16by16-with-controller/matrix_mutiply_controller_tb.sv line 100
